{
  "authors": [
    "Christopho"
  ],
  "categories": [
    "Solarus"
  ],
  "creation_date": "2006-04-01",
  "excerpt": "Nous venons tout juste d'apprendre que Couet a été kidnappée par Super Tomate il y a un peu plus d'une heure ! Il la retient actuellement en....",
  "id": "2006-04-01-couet-a-ete-kidnappee",
  "image_thumbnail": "../../../../../assets/blog/default_article_thumbnail.jpg",
  "page_override": {
    "meta_description": "",
    "meta_image": "../../../../../assets/images/meta_image_fallback.jpg",
    "meta_title": "Couet a été kidnappée !",
    "parent": "news",
    "slug": "news/2006-04-01-couet-a-ete-kidnappee",
    "title": "Couet a été kidnappée !"
  },
  "page_slug": "news/2006-04-01-couet-a-ete-kidnappee",
  "publish": true,
  "title": "Couet a été kidnappée !"
}