{
  "excerpt": "Comment vos scripts Lua peuvent appeler des fonctions du moteur et inversement.",
  "id": "book-chapter-solarus-video-tutorial-basics-lua-scripting",
  "index": 7,
  "origin_tree": "development/tutorials/solarus-video-tutorial",
  "page_override": {
    "meta_description": "Comment vos scripts Lua peuvent appeler des fonctions du moteur et inversement.",
    "meta_image": "../../../../book/tutorial/solarus-video-tutorial/images/thumbnail.png",
    "meta_title": "Les bases des scripts Lua",
    "parent": "development/tutorials/solarus-video-tutorial",
    "slug": "development/tutorials/solarus-video-tutorial/lua-scripting",
    "title": "Les bases des scripts Lua"
  },
  "page_slug": "development/tutorials/solarus-video-tutorial/lua-scripting",
  "publish": true,
  "title": "Les bases des scripts Lua"
}
