{
  "authors": [
    "Christopho"
  ],
  "categories": [
    "Solarus"
  ],
  "creation_date": "2002-05-19",
  "excerpt": "FAQ = Frequently Asked Questions, c'est-à-dire une page où vous trouverez les réponses aux questions que je reçois tous les jours par e-mail.....",
  "id": "2002-05-19-mise-en-ligne-de-la-faq",
  "image_thumbnail": "../../../../../assets/blog/default_article_thumbnail.jpg",
  "page_override": {
    "meta_description": "",
    "meta_image": "../../../../../assets/images/meta_image_fallback.jpg",
    "meta_title": "Mise en ligne de la FAQ",
    "parent": "news",
    "slug": "news/2002-05-19-mise-en-ligne-de-la-faq",
    "title": "Mise en ligne de la FAQ"
  },
  "page_slug": "news/2002-05-19-mise-en-ligne-de-la-faq",
  "publish": true,
  "title": "Mise en ligne de la FAQ"
}