{
  "authors": [
    "Christopho"
  ],
  "categories": [
    "Solarus"
  ],
  "creation_date": "2002-05-02",
  "excerpt": "Nous avons engagé depuis avant-hier un animateur dont le pseudo est Roms, il se charge du chat et sera souvent connecté afin de.... bah comme c'est....",
  "id": "2002-05-02-chat-very-actif",
  "image_thumbnail": "../../../../../assets/blog/default_article_thumbnail.jpg",
  "page_override": {
    "meta_description": "",
    "meta_image": "../../../../../assets/images/meta_image_fallback.jpg",
    "meta_title": "Chat \"very\" actif !",
    "parent": "news",
    "slug": "news/2002-05-02-chat-very-actif",
    "title": "Chat \"very\" actif !"
  },
  "page_slug": "news/2002-05-02-chat-very-actif",
  "publish": true,
  "title": "Chat \"very\" actif !"
}