{
  "authors": [
    "Christopho"
  ],
  "categories": [
    "Solarus"
  ],
  "creation_date": "2003-08-19",
  "excerpt": "Le site et les forums ont été piratés hier soir. Le site n'a subi aucun dégât majeur si ce n'est sa fermeture pendant 24 heures, par contre....",
  "id": "2003-08-19-reouverture-du-site-encore",
  "image_thumbnail": "../../../../../assets/blog/default_article_thumbnail.jpg",
  "page_override": {
    "meta_description": "",
    "meta_image": "../../../../../assets/images/meta_image_fallback.jpg",
    "meta_title": "Réouverture du site (encore !)",
    "parent": "news",
    "slug": "news/2003-08-19-reouverture-du-site-encore",
    "title": "Réouverture du site (encore !)"
  },
  "page_slug": "news/2003-08-19-reouverture-du-site-encore",
  "publish": true,
  "title": "Réouverture du site (encore !)"
}