{
  "authors": [
    "Christopho"
  ],
  "categories": [
    "Solarus"
  ],
  "creation_date": "2003-04-01",
  "excerpt": "Petit rappel pour ceux qui débarquent : \"ZAP\" ce sont les initiales du titre provisoire de notre prochaine création : Zelda Advanced Project. Ce....",
  "id": "2003-04-01-zap-l-avancement-de-la-demo",
  "image_thumbnail": "../../../../../assets/blog/default_article_thumbnail.jpg",
  "page_override": {
    "meta_description": "",
    "meta_image": "../../../../../assets/images/meta_image_fallback.jpg",
    "meta_title": "ZAP : L'avancement de la démo",
    "parent": "news",
    "slug": "news/2003-04-01-zap-l-avancement-de-la-demo",
    "title": "ZAP : L'avancement de la démo"
  },
  "page_slug": "news/2003-04-01-zap-l-avancement-de-la-demo",
  "publish": true,
  "title": "ZAP : L'avancement de la démo"
}