{
  "authors": [
    "Olivier Cléro"
  ],
  "categories": [
    "Solarus"
  ],
  "creation_date": "2019-08-15",
  "excerpt": "Correction de quelques régressions suite à la précedente mise à jour.",
  "id": "2019-08-15-solarus-1-6-2-bugfix-release",
  "image_thumbnail": "2019-08-15-solarus-1-6-2-bugfix-release/cover.jpg",
  "page_override": {
    "meta_description": "Correction de quelques régressions suite à la précedente mise à jour.",
    "meta_image": "../../../../../assets/images/meta_image_fallback.jpg",
    "meta_title": "Version de maintenance 1.6.2 pour Solarus",
    "parent": "news",
    "slug": "news/2019-08-15-solarus-1-6-2-bugfix-release",
    "title": "Version de maintenance 1.6.2 pour Solarus"
  },
  "page_slug": "news/2019-08-15-solarus-1-6-2-bugfix-release",
  "publish": true,
  "title": "Version de maintenance 1.6.2 pour Solarus"
}