{
  "has_breadcrumb": true,
  "meta_description": "Informations sur le projet de moteur de jeu Solarus.",
  "meta_image": "../../../assets/images/meta_image_fallback.jpg",
  "meta_title": "À propos",
  "parent": "home",
  "publish": true,
  "slug": "about",
  "title": "À propos"
}