{
  "authors": [
    "Christopho"
  ],
  "categories": [
    "Solarus"
  ],
  "creation_date": "2003-01-21",
  "excerpt": "Salut à tous ! Comme vous le savez, le samedi 25 janvier à 21 h (15 h heure québécoise) est organisé un quizz sur Zelda Solarus sur le....",
  "id": "2003-01-21-concours-de-samedi-tous-les-details",
  "image_thumbnail": "../../../../../assets/blog/default_article_thumbnail.jpg",
  "page_override": {
    "meta_description": "",
    "meta_image": "../../../../../assets/images/meta_image_fallback.jpg",
    "meta_title": "Concours de samedi : tous les détails",
    "parent": "news",
    "slug": "news/2003-01-21-concours-de-samedi-tous-les-details",
    "title": "Concours de samedi : tous les détails"
  },
  "page_slug": "news/2003-01-21-concours-de-samedi-tous-les-details",
  "publish": true,
  "title": "Concours de samedi : tous les détails"
}