{
  "authors": [
    "Christopho"
  ],
  "categories": [
    "Solarus"
  ],
  "creation_date": "2008-10-05",
  "excerpt": "Une petite news pour vous signaler qu'il y a eu quelques changements par rapport à la dernière news sur Zelda Solarus DX. Voici deux nouvelles....",
  "id": "2008-10-05-quelques-ameliorations",
  "image_thumbnail": "../../../../../assets/blog/default_article_thumbnail.jpg",
  "page_override": {
    "meta_description": "",
    "meta_image": "../../../../../assets/images/meta_image_fallback.jpg",
    "meta_title": "Quelques améliorations",
    "parent": "news",
    "slug": "news/2008-10-05-quelques-ameliorations",
    "title": "Quelques améliorations"
  },
  "page_slug": "news/2008-10-05-quelques-ameliorations",
  "publish": true,
  "title": "Quelques améliorations"
}