{
  "authors": [
    "Christopho"
  ],
  "categories": [
    "Solarus"
  ],
  "creation_date": "2002-11-03",
  "excerpt": "Salut à tous ! Comme vous le savez, Zelda Solarus 2 (titre provisoire) sera développé avec The Games Factory. Zelda Solarus 1 était assez....",
  "id": "2002-11-03-comparatif-entre-tgf-et-la-snes",
  "image_thumbnail": "../../../../../assets/blog/default_article_thumbnail.jpg",
  "page_override": {
    "meta_description": "",
    "meta_image": "../../../../../assets/images/meta_image_fallback.jpg",
    "meta_title": "Comparatif entre TGF et la SNES",
    "parent": "news",
    "slug": "news/2002-11-03-comparatif-entre-tgf-et-la-snes",
    "title": "Comparatif entre TGF et la SNES"
  },
  "page_slug": "news/2002-11-03-comparatif-entre-tgf-et-la-snes",
  "publish": true,
  "title": "Comparatif entre TGF et la SNES"
}