{
  "authors": [
    "Christopho"
  ],
  "categories": [
    "Solarus"
  ],
  "creation_date": "2012-01-23",
  "excerpt": "Vous êtes bloqué dans [url=http://www.zelda-solarus.com/jeu-zsdx-download]Zelda Mystery of Solarus DX[/url] ? Il vous manque un Fragment de Cœur....",
  "id": "2012-01-23-soluce-video-de-zelda-solarus-dx",
  "image_thumbnail": "../../../../../assets/blog/default_article_thumbnail.jpg",
  "page_override": {
    "meta_description": "",
    "meta_image": "../../../../../assets/images/meta_image_fallback.jpg",
    "meta_title": "Soluce vidéo de Zelda Solarus DX",
    "parent": "news",
    "slug": "news/2012-01-23-soluce-video-de-zelda-solarus-dx",
    "title": "Soluce vidéo de Zelda Solarus DX"
  },
  "page_slug": "news/2012-01-23-soluce-video-de-zelda-solarus-dx",
  "publish": true,
  "title": "Soluce vidéo de Zelda Solarus DX"
}