{
  "authors": [
    "%(author)s"
  ],
  "categories": [
    "Solarus"
  ],
  "creation_date": "%(release_date)s",
  "excerpt": "A new bugfix release has been released for Solarus.",
  "id": "%(release_date)s-solarus-%(version_url)s-bugfix-release",
  "image_thumbnail": "images/cover.jpeg",
  "page_override": {
    "meta_description": "A new bugfix release has been released for Solarus.",
    "meta_image": "images/cover.jpeg",
    "meta_title": "Bugfix release %(version)s for Solarus",
    "parent": "news",
    "slug": "news/%(release_date)s-solarus-%(version_url)s-bugfix-release",
    "title": "Bugfix release %(version)s for Solarus"
  },
  "page_slug": "news/%(release_date)s-solarus-%(version_url)s-bugfix-release",
  "publish": true,
  "title": "Bugfix release %(version)s for Solarus"
}