{
  "authors": [
    "%(author)s"
  ],
  "categories": [
    "Solarus"
  ],
  "creation_date": "%(release_date)s",
  "excerpt": "Une nouvelle version de maintenance de Solarus a été publiée.",
  "id": "%(release_date)s-solarus-%(version_url)s-bugfix-release",
  "image_thumbnail": "images/cover.jpeg",
  "page_override": {
    "meta_description": "Une nouvelle version de maintenance de Solarus a été publiée.",
    "meta_image": "images/cover.jpeg",
    "meta_title": "Version de maintenance %(version)s pour Solarus",
    "parent": "news",
    "slug": "news/%(release_date)s-solarus-%(version_url)s-bugfix-release",
    "title": "Version de maintenance %(version)s pour Solarus"
  },
  "page_slug": "news/%(release_date)s-solarus-%(version_url)s-bugfix-release",
  "publish": true,
  "title": "Version de maintenance %(version)s pour Solarus"
}