{
  "authors": [
    "Christopho"
  ],
  "categories": [
    "Solarus"
  ],
  "creation_date": "2001-07-24",
  "excerpt": "Salut à tous ! Une mise à jour pour vous présenter le nouveau système de Carte / Boussole. Dans la démo, il faut bien reconnaùtre que la Carte....",
  "id": "2001-07-24-la-carte-et-la-boussole",
  "image_thumbnail": "../../../../../assets/blog/default_article_thumbnail.jpg",
  "page_override": {
    "meta_description": "",
    "meta_image": "../../../../../assets/images/meta_image_fallback.jpg",
    "meta_title": "La Carte et la Boussole",
    "parent": "news",
    "slug": "news/2001-07-24-la-carte-et-la-boussole",
    "title": "La Carte et la Boussole"
  },
  "page_slug": "news/2001-07-24-la-carte-et-la-boussole",
  "publish": true,
  "title": "La Carte et la Boussole"
}