{
  "excerpt": "How to create interactive non-people entities that still have interaction, like for example signs.",
  "id": "book-chapter-solarus-video-tutorial-basics-generalized-npc",
  "index": 19,
  "origin_tree": "development/tutorials/solarus-video-tutorial",
  "page_override": {
    "meta_description": "How to create interactive non-people entities that still have interaction, like for example signs.",
    "meta_image": "../../../../book/tutorial/solarus-video-tutorial/images/thumbnail.png",
    "meta_title": "Generalized NPCs",
    "parent": "development/tutorials/solarus-video-tutorial",
    "slug": "development/tutorials/solarus-video-tutorial/generalized-npc",
    "title": "Generalized NPCs"
  },
  "page_slug": "development/tutorials/solarus-video-tutorial/generalized-npc",
  "publish": true,
  "title": "Generalized NPCs"
}
