{
  "delegate_entity_type": "article",
  "has_breadcrumb": true,
  "meta_description": "Article pour le blog du moteur de jeu Solarus.",
  "meta_image": "../../../assets/images/meta_image_fallback.jpg",
  "meta_title": "Article de blog",
  "parent": "blog",
  "publish": true
}