{
  "authors": [
    "Christopho"
  ],
  "categories": [
    "Solarus"
  ],
  "creation_date": "2018-01-20",
  "excerpt": "Grâce à une grosse contribution de Vlag, la prochaine version de Solarus permettra de réaliser toutes sortes d'effets graphiques. Les shaders....",
  "id": "2018-01-20-de-nouveaux-effets-graphiques",
  "image_thumbnail": "../../../../../assets/blog/default_article_thumbnail.jpg",
  "page_override": {
    "meta_description": "",
    "meta_image": "../../../../../assets/images/meta_image_fallback.jpg",
    "meta_title": "De nouveaux effets graphiques",
    "parent": "news",
    "slug": "news/2018-01-20-de-nouveaux-effets-graphiques",
    "title": "De nouveaux effets graphiques"
  },
  "page_slug": "news/2018-01-20-de-nouveaux-effets-graphiques",
  "publish": true,
  "title": "De nouveaux effets graphiques"
}