{
  "authors": [
    "Binbin"
  ],
  "categories": [
    "Solarus"
  ],
  "creation_date": "2018-01-22",
  "excerpt": "Le semaine dernière, j'ai travaillé d'arrache-pied à l'élaboration du Temple du Masque. Pour ceux qui ne connaissent pas ce lieu mythique, il....",
  "id": "2018-01-22-le-temple-du-masque",
  "image_thumbnail": "../../../../../assets/blog/default_article_thumbnail.jpg",
  "page_override": {
    "meta_description": "",
    "meta_image": "../../../../../assets/images/meta_image_fallback.jpg",
    "meta_title": "Le Temple du Masque",
    "parent": "news",
    "slug": "news/2018-01-22-le-temple-du-masque",
    "title": "Le Temple du Masque"
  },
  "page_slug": "news/2018-01-22-le-temple-du-masque",
  "publish": true,
  "title": "Le Temple du Masque"
}