{
  "authors": [
    "Christopho"
  ],
  "categories": [
    "Solarus"
  ],
  "creation_date": "2009-07-10",
  "excerpt": "Bonsoir à tous, Je n'avais pas donné de nouvelles du développement depuis un certain temps. Il faut dire que l'actualité Zelda a été fournie....",
  "id": "2009-07-10-zelda-solarus-dx-a-l-attaque-du-premier-donjon",
  "image_thumbnail": "../../../../../assets/blog/default_article_thumbnail.jpg",
  "page_override": {
    "meta_description": "",
    "meta_image": "../../../../../assets/images/meta_image_fallback.jpg",
    "meta_title": "Zelda Solarus DX : à l'attaque du premier donjon !",
    "parent": "news",
    "slug": "news/2009-07-10-zelda-solarus-dx-a-l-attaque-du-premier-donjon",
    "title": "Zelda Solarus DX : à l'attaque du premier donjon !"
  },
  "page_slug": "news/2009-07-10-zelda-solarus-dx-a-l-attaque-du-premier-donjon",
  "publish": true,
  "title": "Zelda Solarus DX : à l'attaque du premier donjon !"
}