{
  "excerpt": "Chapter 12 of the walkthrough for The Legend of Zelda: Mystery of Solarus DX.",
  "id": "book-chapter-the-legend-of-zelda-mystery-of-solarus-dx-walkthrough-12",
  "index": 12,
  "origin_tree": "games/the-legend-of-zelda-mystery-of-solarus-dx/walkthrough",
  "page_override": {
    "meta_description": "Chapter 12 of the walkthrough for The Legend of Zelda: Mystery of Solarus DX.",
    "meta_image": "../../../assets/images/meta_image_fallback.jpg",
    "meta_title": "Inferno's Daedalus",
    "parent": "games/the-legend-of-zelda-mystery-of-solarus-dx/walkthrough",
    "slug": "games/the-legend-of-zelda-mystery-of-solarus-dx/walkthrough/12-inferno-daedalus",
    "title": "Inferno's Daedalus"
  },
  "page_slug": "games/the-legend-of-zelda-mystery-of-solarus-dx/walkthrough/12-inferno-daedalus",
  "publish": true,
  "title": "Inferno's Daedalus"
}
