{
  "authors": [
    "Christopho"
  ],
  "categories": [
    "Solarus"
  ],
  "creation_date": "2001-06-25",
  "excerpt": "Voici rien que pour vos yeux les nouveaux screenshots de Zelda : Mystery of Solarus. Vous pouvez voir sur certaines images quelques nouveautés... Je....",
  "id": "2001-06-25-neuf-nouveaux-screenshots-du-jeu",
  "image_thumbnail": "../../../../../assets/blog/default_article_thumbnail.jpg",
  "page_override": {
    "meta_description": "",
    "meta_image": "../../../../../assets/images/meta_image_fallback.jpg",
    "meta_title": "Neuf nouveaux screenshots du jeu",
    "parent": "news",
    "slug": "news/2001-06-25-neuf-nouveaux-screenshots-du-jeu",
    "title": "Neuf nouveaux screenshots du jeu"
  },
  "page_slug": "news/2001-06-25-neuf-nouveaux-screenshots-du-jeu",
  "publish": true,
  "title": "Neuf nouveaux screenshots du jeu"
}