{
  "authors": [
    "Christopho"
  ],
  "categories": [
    "Solarus"
  ],
  "creation_date": "2012-02-23",
  "excerpt": "La soluce vidéo de [url=http://www.zelda-solarus.com/jeu-zsdx]Zelda Mystery of Solarus DX[/url] continue sur sa lancée ! Ce soir je viens....",
  "id": "2012-02-23-et-deux-de-plus",
  "image_thumbnail": "../../../../../assets/blog/default_article_thumbnail.jpg",
  "page_override": {
    "meta_description": "",
    "meta_image": "../../../../../assets/images/meta_image_fallback.jpg",
    "meta_title": "Et deux de plus !",
    "parent": "news",
    "slug": "news/2012-02-23-et-deux-de-plus",
    "title": "Et deux de plus !"
  },
  "page_slug": "news/2012-02-23-et-deux-de-plus",
  "publish": true,
  "title": "Et deux de plus !"
}