{
  "authors": [
    "Olivier Cléro"
  ],
  "categories": [
    "Games"
  ],
  "creation_date": "2019-05-19",
  "excerpt": "A new game made with Solarus has been released: the Chapter 2 of Le Défi de Zeldo!",
  "id": "article-2019-05-19-zeldo-game-release",
  "image_thumbnail": "2019-05-19-zeldo-game-release/cover.jpg",
  "page_override": {
    "meta_description": "A new game made with Solarus has been released: the Chapter 2 of Le Défi de Zeldo!",
    "meta_image": "../../../../assets/images/meta_image_fallback.jpg",
    "meta_title": "Chapter 2 release for Le Défi de Zeldo",
    "parent": "news",
    "slug": "news/2019-05-19-zeldo-game-release",
    "title": "Chapter 2 release for Le Défi de Zeldo"
  },
  "page_slug": "news/2019-05-19-zeldo-game-release",
  "publish": true,
  "title": "Chapter 2 release for Le Défi de Zeldo"
}