{
  "authors": [
    "Auteurs multiples"
  ],
  "downloads": [
    {
      "content": "downloads/any.md",
      "file": "https://gitlab.com/solarus-games/solarus-free-resource-pack/-/archive/master/solarus-free-resource-pack-master.zip",
      "label": ".zip file",
      "platform": "any",
      "version": "1.6.5"
    }
  ],
  "excerpt": "Un pack de ressources libres pour créer votre premier jeu avec Solarus.",
  "id": "resource-pack-free-resource-pack",
  "image_thumbnail": "images/thumbnail.png",
  "licenses": [
    "CC-BY-SA 4.0",
    "GPL v3"
  ],
  "medias": [
    {
      "image": "medias/screen_1.png",
      "thumbnail": "medias/screen_1.png",
      "type": "image"
    },
    {
      "image": "medias/screen_2.png",
      "thumbnail": "medias/screen_2.png",
      "type": "image"
    },
    {
      "image": "medias/screen_3.png",
      "thumbnail": "medias/screen_3.png",
      "type": "image"
    },
    {
      "image": "medias/screen_4.png",
      "thumbnail": "medias/screen_4.png",
      "type": "image"
    }
  ],
  "page_override": {
    "meta_description": "Solarus Free Resource Pack: assets libres (sprites, tilesets, sons, musiques, scripts)",
    "meta_image": "../../../assets/images/meta_image_fallback.jpg",
    "meta_title": "Free Resource Pack",
    "slug": "development/resource-packs/free-resource-pack",
    "title": "Free Resource Pack"
  },
  "page_slug": "development/resource-packs/free-resource-pack",
  "publish": true,
  "release_date": "2018-12-22",
  "solarus_version": "1.6.x",
  "source_code": "https://gitlab.com/solarus-games/solarus-free-resource-pack",
  "title": "Free Resource Pack",
  "version": "1.6.5"
}
