{
  "excerpt": "How to allow the hero to swim in deep water, with an item that gives the swim ability.",
  "id": "book-chapter-solarus-video-tutorial-basics-swimming",
  "index": 36,
  "origin_tree": "development/tutorials/solarus-video-tutorial",
  "page_override": {
    "meta_description": "How to allow the hero to swim in deep water, with an item that gives the swim ability.",
    "meta_image": "../../../../book/tutorial/solarus-video-tutorial/images/thumbnail.png",
    "meta_title": "Let's swim",
    "parent": "development/tutorials/solarus-video-tutorial",
    "slug": "development/tutorials/solarus-video-tutorial/swimming",
    "title": "Let's swim"
  },
  "page_slug": "development/tutorials/solarus-video-tutorial/swimming",
  "publish": true,
  "title": "Let's swim"
}
