{
  "authors": [
    "Christopho"
  ],
  "categories": [
    "Solarus"
  ],
  "creation_date": "2001-08-27",
  "excerpt": "Le quatrième donjon est en pleine phase de création ! Toutes les salles sont déjà dessinées, il ne me reste plus que le plus dur : rajouter les....",
  "id": "2001-08-27-ca-avance",
  "image_thumbnail": "../../../../../assets/blog/default_article_thumbnail.jpg",
  "page_override": {
    "meta_description": "",
    "meta_image": "../../../../../assets/images/meta_image_fallback.jpg",
    "meta_title": "Ca avance !",
    "parent": "news",
    "slug": "news/2001-08-27-ca-avance",
    "title": "Ca avance !"
  },
  "page_slug": "news/2001-08-27-ca-avance",
  "publish": true,
  "title": "Ca avance !"
}