{
  "authors": [
    "Christopho"
  ],
  "categories": [
    "Solarus"
  ],
  "creation_date": "2014-02-01",
  "excerpt": "La solution vidéo de Zelda Mystery of Solarus DX est finie depuis un moment, mais il manquait un épisode spécial dédié au Fragments de Cœur.",
  "id": "2014-02-01-soluce-video-des-fragments-de-coeur",
  "image_thumbnail": "../../../../../assets/blog/default_article_thumbnail.jpg",
  "page_override": {
    "meta_description": "",
    "meta_image": "../../../../../assets/images/meta_image_fallback.jpg",
    "meta_title": "Soluce vidéo des Fragments de Cœur",
    "parent": "news",
    "slug": "news/2014-02-01-soluce-video-des-fragments-de-coeur",
    "title": "Soluce vidéo des Fragments de Cœur"
  },
  "page_slug": "news/2014-02-01-soluce-video-des-fragments-de-coeur",
  "publish": true,
  "title": "Soluce vidéo des Fragments de Cœur"
}