{
  "authors": [
    "Christopho"
  ],
  "categories": [
    "Solarus"
  ],
  "creation_date": "2011-03-31",
  "excerpt": "Bonsoir à tous ! Il y a longtemps que vous n'avez pas eu de nouvelles concernant notre remake de Zelda : Mystery of Solarus, et pour cause, son....",
  "id": "2011-03-31-zelda-mystery-of-solarus-xd-le-jeu-complet",
  "image_thumbnail": "../../../../../assets/blog/default_article_thumbnail.jpg",
  "page_override": {
    "meta_description": "",
    "meta_image": "../../../../../assets/images/meta_image_fallback.jpg",
    "meta_title": "Zelda Mystery of Solarus XD, le jeu complet",
    "parent": "news",
    "slug": "news/2011-03-31-zelda-mystery-of-solarus-xd-le-jeu-complet",
    "title": "Zelda Mystery of Solarus XD, le jeu complet"
  },
  "page_slug": "news/2011-03-31-zelda-mystery-of-solarus-xd-le-jeu-complet",
  "publish": true,
  "title": "Zelda Mystery of Solarus XD, le jeu complet"
}