{
  "authors": [
    "Christopho"
  ],
  "categories": [
    "Solarus"
  ],
  "creation_date": "2008-05-10",
  "excerpt": "Le développement avance petit à petit ^^ Ces derniers jours j'ai travaillé sur certains mouvements de Link : pousser un mur, charger son épée....",
  "id": "2008-05-10-zsdx-les-animations-de-link",
  "image_thumbnail": "../../../../../assets/blog/default_article_thumbnail.jpg",
  "page_override": {
    "meta_description": "",
    "meta_image": "../../../../../assets/images/meta_image_fallback.jpg",
    "meta_title": "ZSDX : les animations de Link",
    "parent": "news",
    "slug": "news/2008-05-10-zsdx-les-animations-de-link",
    "title": "ZSDX : les animations de Link"
  },
  "page_slug": "news/2008-05-10-zsdx-les-animations-de-link",
  "publish": true,
  "title": "ZSDX : les animations de Link"
}