{
  "authors": [
    "Christopho"
  ],
  "categories": [
    "Solarus"
  ],
  "creation_date": "2017-02-13",
  "excerpt": "La capture d'écran de la semaine de Zelda Mercuris' Chest vous emmène dans des montagnes enneigées mais où la lave n'est pourtant jamais bien....",
  "id": "2017-02-13-le-chaud-et-le-froid",
  "image_thumbnail": "../../../../../assets/blog/default_article_thumbnail.jpg",
  "page_override": {
    "meta_description": "",
    "meta_image": "../../../../../assets/images/meta_image_fallback.jpg",
    "meta_title": "Le chaud et le froid",
    "parent": "news",
    "slug": "news/2017-02-13-le-chaud-et-le-froid",
    "title": "Le chaud et le froid"
  },
  "page_slug": "news/2017-02-13-le-chaud-et-le-froid",
  "publish": true,
  "title": "Le chaud et le froid"
}