{
  "excerpt": "How to create your own tileset from screenshots of an existing game.",
  "id": "book-chapter-solarus-video-tutorial-basics-create-a-tileset",
  "index": 14,
  "origin_tree": "development/tutorials/solarus-video-tutorial",
  "page_override": {
    "meta_description": "How to create your own tileset from screenshots of an existing game.",
    "meta_image": "../../../../book/tutorial/solarus-video-tutorial/images/thumbnail.png",
    "meta_title": "How to create a tileset",
    "parent": "development/tutorials/solarus-video-tutorial",
    "slug": "development/tutorials/solarus-video-tutorial/create-a-tileset",
    "title": "How to create a tileset"
  },
  "page_slug": "development/tutorials/solarus-video-tutorial/create-a-tileset",
  "publish": true,
  "title": "How to create a tileset"
}
