{
  "authors": [
    "Nintendo",
    "Multiple authors"
  ],
  "downloads": [],
  "excerpt": "Tous les outils dont vous avez besoin pour créer un clone de Zelda Oracle of Ages/Seasons.",
  "id": "resource-pack-the-legend-of-zelda-oracles",
  "image_thumbnail": "images/thumbnail.png",
  "licenses": [
    "Propriétaire (usage raisonnable)",
    "GPL v3"
  ],
  "medias": [
    {
      "image": "medias/screen_1.png",
      "thumbnail": "medias/screen_1.png",
      "type": "image"
    },
    {
      "image": "medias/screen_2.png",
      "thumbnail": "medias/screen_2.png",
      "type": "image"
    },
    {
      "image": "medias/screen_3.png",
      "thumbnail": "medias/screen_3.png",
      "type": "image"
    },
    {
      "image": "medias/screen_4.png",
      "thumbnail": "medias/screen_4.png",
      "type": "image"
    },
    {
      "image": "medias/screen_5.png",
      "thumbnail": "medias/screen_5.png",
      "type": "image"
    },
    {
      "image": "medias/screen_6.png",
      "thumbnail": "medias/screen_6.png",
      "type": "image"
    },
    {
      "image": "medias/screen_7.png",
      "thumbnail": "medias/screen_7.png",
      "type": "image"
    },
    {
      "image": "medias/screen_8.png",
      "thumbnail": "medias/screen_8.png",
      "type": "image"
    }
  ],
  "page_override": {
    "meta_description": "Pack de ressources basé sur Zelda Oracle of Ages/Seasons sur GBC (sprites, tilesets, sons, musiques, scripts).",
    "meta_image": "../../../assets/images/meta_image_fallback.jpg",
    "meta_title": "The Legend of Zelda: Oracle of Ages/Seasons",
    "slug": "development/resource-packs/the-legend-of-zelda-oracles",
    "title": "The Legend of Zelda: Oracle of Ages/Seasons"
  },
  "page_slug": "development/resource-packs/the-legend-of-zelda-oracles",
  "publish": true,
  "release_date": false,
  "solarus_version": "1.5.x",
  "source_code": "http://forum.solarus-games.org/index.php/topic,1292.msg8091.html",
  "title": "The Legend of Zelda: Oracle of Ages/Seasons",
  "version": "-"
}
