{
  "authors": [
    "Binbin"
  ],
  "categories": [
    "Solarus"
  ],
  "creation_date": "2013-04-08",
  "excerpt": "Bonsoir à toutes et à tous :) C'est avec plaisir que je poste ce soir ma première news sur le nouveau site. Je tiens dans un premier temps à....",
  "id": "2013-04-08-basculement-en-cours-suite",
  "image_thumbnail": "../../../../../assets/blog/default_article_thumbnail.jpg",
  "page_override": {
    "meta_description": "",
    "meta_image": "../../../../../assets/images/meta_image_fallback.jpg",
    "meta_title": "Basculement en cours (suite)",
    "parent": "news",
    "slug": "news/2013-04-08-basculement-en-cours-suite",
    "title": "Basculement en cours (suite)"
  },
  "page_slug": "news/2013-04-08-basculement-en-cours-suite",
  "publish": true,
  "title": "Basculement en cours (suite)"
}