{
  "authors": [
    "Christopho"
  ],
  "categories": [
    "Solarus"
  ],
  "creation_date": "2002-04-25",
  "excerpt": "Ca y est !\n\nCa y est ! Et cette fois, pas de faux départ !\n\nJe pense que vous devez êtes surpris de ce nouveau design, même si vous vous y....",
  "id": "2002-04-25-le-jeu",
  "image_thumbnail": "../../../../../assets/blog/default_article_thumbnail.jpg",
  "page_override": {
    "meta_description": "",
    "meta_image": "../../../../../assets/images/meta_image_fallback.jpg",
    "meta_title": "Le jeu !",
    "parent": "news",
    "slug": "news/2002-04-25-le-jeu",
    "title": "Le jeu !"
  },
  "page_slug": "news/2002-04-25-le-jeu",
  "publish": true,
  "title": "Le jeu !"
}