{
  "age": "All publics",
  "authors": [
    "ZeldoRetro"
  ],
  "controls": [
    "keyboard",
    "gamepad"
  ],
  "downloads": [
    {
      "content": "downloads/any.md",
      "file": "https://github.com/ZeldoRetro/defi_zeldo_chap_2/releases/download/v1.0.1/defi_zeldo_chap_2.solarus",
      "label": ".solarus file",
      "platform": "any",
      "version": "1.0.1"
    }
  ],
  "excerpt": "After his 1st victory against Zeldo, Link is teleported in High-rule where Zeldo is waiting for him at the top of the Memories Tower for his revenge!",
  "icons": {
    "128x128": "icons/icon_128x128.png",
    "16x16": "icons/icon_16x16.png",
    "32x32": "icons/icon_32x32.png",
    "64x64": "icons/icon_64x64.png"
  },
  "id": "game-defi-de-zeldo-ch-2",
  "image_cover": "images/cover.jpg",
  "image_logo": "images/logo.png",
  "image_thumbnail": "images/thumbnail.png",
  "languages": [
    "English",
    "French"
  ],
  "licenses": [
    "GPL v3",
    "CC-BY-SA 4.0",
    "Proprietary (Fair use)"
  ],
  "medias": [
    {
      "image": "medias/screen_1.png",
      "thumbnail": "medias/screen_1.png",
      "type": "image"
    },
    {
      "image": "medias/screen_2.png",
      "thumbnail": "medias/screen_2.png",
      "type": "image"
    },
    {
      "image": "medias/screen_3.png",
      "thumbnail": "medias/screen_3.png",
      "type": "image"
    },
    {
      "image": "medias/screen_4.png",
      "thumbnail": "medias/screen_4.png",
      "type": "image"
    },
	    {
      "image": "medias/screen_5.png",
      "thumbnail": "medias/screen_5.png",
      "type": "image"
    },
	    {
      "image": "medias/screen_6.png",
      "thumbnail": "medias/screen_6.png",
      "type": "image"
    },
	    {
      "image": "medias/screen_7.png",
      "thumbnail": "medias/screen_7.png",
      "type": "image"
    },
	    {
      "image": "medias/screen_8.png",
      "thumbnail": "medias/screen_8.png",
      "type": "image"
    },
	    {
      "image": "medias/screen_9.png",
      "thumbnail": "medias/screen_9.png",
      "type": "image"
    },
	    {
      "image": "medias/screen_10.png",
      "thumbnail": "medias/screen_10.png",
      "type": "image"
    },
	    {
      "image": "medias/screen_11.png",
      "thumbnail": "medias/screen_11.png",
      "type": "image"
    },
	    {
      "image": "medias/screen_12.png",
      "thumbnail": "medias/screen_12.png",
      "type": "image"
    }
  ],
  "page_override": {
    "meta_description": "After his 1st victory against Zeldo, Link is teleported in High-rule where Zeldo is waiting for him at the top of the Memories Tower for his revenge!",
    "meta_image": "images/thumbnail.png",
    "meta_title": "Le Défi de Zeldo - Ch. 2 : La Tour des Souvenirs",
    "slug": "games/defi-de-zeldo-ch-2",
    "title": "Le Défi de Zeldo - Ch. 2 : La Tour des Souvenirs"
  },
  "page_slug": "games/defi-de-zeldo-ch-2",
  "players": 1,
  "publish": true,
  "release_date": "2019-05-10",
  "solarus_version": "1.6.x",
  "source_code": "https://github.com/ZeldoRetro/defi_zeldo_chap_2",
  "states": [
    "Released"
  ],
  "title": "Le Défi de Zeldo - Ch. 2 : La Tour des Souvenirs",
  "types": [
    "Action-RPG", 
    "Adventure"
  ],
  "version": "1.0.1"
}
