{
  "excerpt": "Comment ajouter un item pour représenter l'argent dans votre jeu.",
  "id": "book-chapter-solarus-video-tutorial-basics-rupees",
  "index": 34,
  "origin_tree": "development/tutorials/solarus-video-tutorial",
  "page_override": {
    "meta_description": "Comment ajouter un item pour représenter l'argent dans votre jeu.",
    "meta_image": "../../../../book/tutorial/solarus-video-tutorial/images/thumbnail.png",
    "meta_title": "Les rubis",
    "parent": "development/tutorials/solarus-video-tutorial",
    "slug": "development/tutorials/solarus-video-tutorial/rupees",
    "title": "Les rubis"
  },
  "page_slug": "development/tutorials/solarus-video-tutorial/rupees",
  "publish": true,
  "title": "Les rubis"
}
