{
  "excerpt": "How to detect the presence of the hero.",
  "id": "book-chapter-solarus-video-tutorial-basics-sensors",
  "index": 30,
  "origin_tree": "development/tutorials/solarus-video-tutorial",
  "page_override": {
    "meta_description": "How to detect the presence of the hero.",
    "meta_image": "../../../../book/tutorial/solarus-video-tutorial/images/thumbnail.png",
    "meta_title": "Sensors",
    "parent": "development/tutorials/solarus-video-tutorial",
    "slug": "development/tutorials/solarus-video-tutorial/sensors",
    "title": "Sensors"
  },
  "page_slug": "development/tutorials/solarus-video-tutorial/sensors",
  "publish": true,
  "title": "Sensors"
}
