{
  "authors": [
    "Olivier Cléro"
  ],
  "categories": [
    "Solarus"
  ],
  "creation_date": "2015-08-13",
  "excerpt": "We are proud to announce the release of a new game ! It is called Return of the Hylian - Solarus Edition. However, it is not really a new game, since....",
  "id": "2015-08-13-new-game-release-zelda-return-of-the-hylian-solarus-edition",
  "image_thumbnail": "../../../../../assets/blog/default_article_thumbnail.jpg",
  "page_override": {
    "meta_description": "",
    "meta_image": "../../../../../assets/images/meta_image_fallback.jpg",
    "meta_title": "New game release : Zelda Return of the Hylian (Solarus Edition)",
    "parent": "news",
    "slug": "news/2015-08-13-new-game-release-zelda-return-of-the-hylian-solarus-edition",
    "title": "New game release : Zelda Return of the Hylian (Solarus Edition)"
  },
  "page_slug": "news/2015-08-13-new-game-release-zelda-return-of-the-hylian-solarus-edition",
  "publish": true,
  "title": "New game release : Zelda Return of the Hylian (Solarus Edition)"
}