{
  "authors": [
    "Christopho"
  ],
  "categories": [
    "Solarus"
  ],
  "creation_date": "2004-03-26",
  "excerpt": "La liste des membres de l'équipe du projet Zelda : MC (Zelda \"Advanced Project\") vient d'être actualisée car elle n'était plus vraiment à jour.....",
  "id": "2004-03-26-mise-a-jour-de-la-page-equipe-de-zelda-m-c",
  "image_thumbnail": "../../../../../assets/blog/default_article_thumbnail.jpg",
  "page_override": {
    "meta_description": "",
    "meta_image": "../../../../../assets/images/meta_image_fallback.jpg",
    "meta_title": "Mise à jour de la page Equipe de Zelda : M.C.",
    "parent": "news",
    "slug": "news/2004-03-26-mise-a-jour-de-la-page-equipe-de-zelda-m-c",
    "title": "Mise à jour de la page Equipe de Zelda : M.C."
  },
  "page_slug": "news/2004-03-26-mise-a-jour-de-la-page-equipe-de-zelda-m-c",
  "publish": true,
  "title": "Mise à jour de la page Equipe de Zelda : M.C."
}