{
  "authors": [
    "Christopho"
  ],
  "categories": [
    "Solarus"
  ],
  "creation_date": "2013-05-07",
  "excerpt": "Bonjour à tous, Jusqu'à présent, nos jeux sont disponibles pour Mac OS X 10.6 et supérieur, en version 64 bits optimisée pour les machines....",
  "id": "2013-05-07-telechargements-pour-les-anciennes-versions-de-mac-os-x",
  "image_thumbnail": "../../../../../assets/blog/default_article_thumbnail.jpg",
  "page_override": {
    "meta_description": "",
    "meta_image": "../../../../../assets/images/meta_image_fallback.jpg",
    "meta_title": "Téléchargements pour les anciennes versions de Mac OS X",
    "parent": "news",
    "slug": "news/2013-05-07-telechargements-pour-les-anciennes-versions-de-mac-os-x",
    "title": "Téléchargements pour les anciennes versions de Mac OS X"
  },
  "page_slug": "news/2013-05-07-telechargements-pour-les-anciennes-versions-de-mac-os-x",
  "publish": true,
  "title": "Téléchargements pour les anciennes versions de Mac OS X"
}