{
  "age": "Tous publics",
  "authors": [
    "Solarus Team",
    "Vincent Jouillat"
  ],
  "controls": [
    "keyboard",
    "gamepad"
  ],
  "downloads": [
    {
      "content": "downloads/any.md",
      "file": "https://gitlab.com/solarus-games/zelda-roth-se/-/package_files/8119830/download",
      "label": ".solarus file",
      "platform": "any",
      "version": "1.2.1"
    }
  ],
  "excerpt": "Le remake avec Solarus du premier jeu de Vincent Jouillat, et premier épisode d'une trilogie.",
  "icons": {
    "128x128": "icons/icon_128x128.png",
    "16x16": "icons/icon_16x16.png",
    "32x32": "icons/icon_32x32.png",
    "64x64": "icons/icon_64x64.png"
  },
  "id": "game-the-legend-of-zelda-return-of-the-hylian-se",
  "image_cover": "images/cover.jpg",
  "image_logo": "images/logo.png",
  "image_logo_author": "../../../assets/authors/solarus_team.png",
  "image_thumbnail": "images/thumbnail.png",
  "languages": [
    "Anglais",
    "Français",
    "Allemand",
    "Espagnol"
  ],
  "licenses": [
    "GPL v3",
    "CC-BY-SA 4.0",
    "Propriétaire (usage raisonnable)"
  ],
  "medias": [
    {
      "image": "medias/screen_1.png",
      "thumbnail": "medias/screen_1.png",
      "type": "image"
    },
    {
      "image": "medias/screen_2.png",
      "thumbnail": "medias/screen_2.png",
      "type": "image"
    },
    {
      "image": "medias/screen_3.png",
      "thumbnail": "medias/screen_3.png",
      "type": "image"
    },
    {
      "image": "medias/screen_4.png",
      "thumbnail": "medias/screen_4.png",
      "type": "image"
    }
  ],
  "page_override": {
    "meta_description": "Le remake avec Solarus du premier jeu de Vincent Jouillat.",
    "meta_image": "images/thumbnail.png",
    "meta_title": "The Legend of Zelda: Return of the Hylian SE",
    "slug": "games/the-legend-of-zelda-return-of-the-hylian-se",
    "title": "The Legend of Zelda: Return of the Hylian SE"
  },
  "page_slug": "games/the-legend-of-zelda-return-of-the-hylian-se",
  "players": 1,
  "publish": true,
  "release_date": "2015-08-13",
  "solarus_version": "1.6.x",
  "source_code": "https://gitlab.com/solarus-games/zelda-roth-se",
  "states": [
    "Publié"
  ],
  "title": "The Legend of Zelda: Return of the Hylian SE",
  "types": [
    "Action-RPG",
    "Aventure"
  ],
  "version": "1.2.1"
}
