{
  "authors": [
    "Christopho"
  ],
  "categories": [
    "Solarus"
  ],
  "creation_date": "2005-03-06",
  "excerpt": "Bruno, déjà auteur de plusieurs fan arts, a réalisé rien que pour vous une affiche de notre création Zelda : Mystery of Solarus (cliquez pour....",
  "id": "2005-03-06-zelda-mystery-of-solarus-l-affiche-officielle",
  "image_thumbnail": "../../../../../assets/blog/default_article_thumbnail.jpg",
  "page_override": {
    "meta_description": "",
    "meta_image": "../../../../../assets/images/meta_image_fallback.jpg",
    "meta_title": "Zelda Mystery of Solarus : l'affiche officielle !",
    "parent": "news",
    "slug": "news/2005-03-06-zelda-mystery-of-solarus-l-affiche-officielle",
    "title": "Zelda Mystery of Solarus : l'affiche officielle !"
  },
  "page_slug": "news/2005-03-06-zelda-mystery-of-solarus-l-affiche-officielle",
  "publish": true,
  "title": "Zelda Mystery of Solarus : l'affiche officielle !"
}