{
  "excerpt": "Comment créer un ennemi.",
  "id": "book-chapter-solarus-video-tutorial-basics-enemies",
  "index": 26,
  "origin_tree": "development/tutorials/solarus-video-tutorial",
  "page_override": {
    "meta_description": "Comment créer un ennemi.",
    "meta_image": "../../../../book/tutorial/solarus-video-tutorial/images/thumbnail.png",
    "meta_title": "Les ennemis",
    "parent": "development/tutorials/solarus-video-tutorial",
    "slug": "development/tutorials/solarus-video-tutorial/enemies",
    "title": "Les ennemis"
  },
  "page_slug": "development/tutorials/solarus-video-tutorial/enemies",
  "publish": true,
  "title": "Les ennemis"
}
