{
  "authors": [
    "Christopho"
  ],
  "categories": [
    "Solarus"
  ],
  "creation_date": "2002-10-24",
  "excerpt": "Salut à tous ! Les downloads sont à nouveau disponibles. Je viens de les tester et ils fonctionnent tous ! Donc vous pouvez vous rendre sur la....",
  "id": "2002-10-24-tous-les-downloads-fonctionnent-a-nouveau",
  "image_thumbnail": "../../../../../assets/blog/default_article_thumbnail.jpg",
  "page_override": {
    "meta_description": "",
    "meta_image": "../../../../../assets/images/meta_image_fallback.jpg",
    "meta_title": "Tous les downloads fonctionnent à nouveau !",
    "parent": "news",
    "slug": "news/2002-10-24-tous-les-downloads-fonctionnent-a-nouveau",
    "title": "Tous les downloads fonctionnent à nouveau !"
  },
  "page_slug": "news/2002-10-24-tous-les-downloads-fonctionnent-a-nouveau",
  "publish": true,
  "title": "Tous les downloads fonctionnent à nouveau !"
}