{
  "authors": [
    "Christopho"
  ],
  "categories": [
    "Solarus"
  ],
  "creation_date": "2003-02-13",
  "excerpt": "Depuis que nous avons déménagé les forums sur free.fr, ils sont très lents et fonctionnent difficilement. Alors comme notre ancien compte sur....",
  "id": "2003-02-13-et-les-forums-redemenagent",
  "image_thumbnail": "../../../../../assets/blog/default_article_thumbnail.jpg",
  "page_override": {
    "meta_description": "",
    "meta_image": "../../../../../assets/images/meta_image_fallback.jpg",
    "meta_title": "Et les forums redéménagent !",
    "parent": "news",
    "slug": "news/2003-02-13-et-les-forums-redemenagent",
    "title": "Et les forums redéménagent !"
  },
  "page_slug": "news/2003-02-13-et-les-forums-redemenagent",
  "publish": true,
  "title": "Et les forums redéménagent !"
}