{
  "authors": [
    "Christopho"
  ],
  "categories": [
    "Solarus"
  ],
  "creation_date": "2003-02-13",
  "excerpt": "Vous n'aviez pas eu depuis longtemps des nouvelles de ZAP, c'est certainement un jeu avec lequel nous ne souhaitons pas trop en dire, histoire de....",
  "id": "2003-02-13-zap-les-nouveautes",
  "image_thumbnail": "../../../../../assets/blog/default_article_thumbnail.jpg",
  "page_override": {
    "meta_description": "",
    "meta_image": "../../../../../assets/images/meta_image_fallback.jpg",
    "meta_title": "Zap : les nouveautés",
    "parent": "news",
    "slug": "news/2003-02-13-zap-les-nouveautes",
    "title": "Zap : les nouveautés"
  },
  "page_slug": "news/2003-02-13-zap-les-nouveautes",
  "publish": true,
  "title": "Zap : les nouveautés"
}