{
  "authors": [
    "Christopho"
  ],
  "categories": [
    "Solarus"
  ],
  "creation_date": "2011-08-08",
  "excerpt": "Yes, the title is correct: Zelda Mystery of Solarus XD, not DX! DX is in progress too, but this is not what I'm talking about today!\r\n\r\nZelda Mystery....",
  "id": "2011-08-08-coming-soon-zelda-mystery-of-solarus-xd",
  "image_thumbnail": "../../../../../assets/blog/default_article_thumbnail.jpg",
  "page_override": {
    "meta_description": "",
    "meta_image": "../../../../../assets/images/meta_image_fallback.jpg",
    "meta_title": "Coming soon: Zelda Mystery of Solarus XD",
    "parent": "news",
    "slug": "news/2011-08-08-coming-soon-zelda-mystery-of-solarus-xd",
    "title": "Coming soon: Zelda Mystery of Solarus XD"
  },
  "page_slug": "news/2011-08-08-coming-soon-zelda-mystery-of-solarus-xd",
  "publish": true,
  "title": "Coming soon: Zelda Mystery of Solarus XD"
}