{
  "age": "Tous publics",
  "authors": [
    "voadi.com"
  ],
  "controls": [
    "keyboard",
    "gamepad"
  ],
  "downloads": [],
  "excerpt": "Une aventure à l'humour insolent, sur l'activisme et la cause animale.",
  "icons": {
    "128x128": "icons/icon_128x128.png",
    "16x16": "icons/icon_16x16.png",
    "32x32": "icons/icon_32x32.png",
    "64x64": "icons/icon_64x64.png"
  },
  "id": "game-vegan-on-a-desert-island",
  "image_cover": "images/cover.jpg",
  "image_logo": "images/logo.png",
  "image_thumbnail": "images/thumbnail.png",
  "languages": [
    "Anglais"
  ],
  "licenses": [
    "GPL v3",
    "CC-BY-SA 4.0"
  ],
  "medias": [
    {
      "image": "medias/screen_1.png",
      "thumbnail": "medias/screen_1.png",
      "type": "image"
    },
    {
      "image": "medias/screen_2.png",
      "thumbnail": "medias/screen_2.png",
      "type": "image"
    },
    {
      "image": "medias/screen_3.png",
      "thumbnail": "medias/screen_3.png",
      "type": "image"
    },
    {
      "image": "medias/screen_4.png",
      "thumbnail": "medias/screen_4.png",
      "type": "image"
    }
  ],
  "page_override": {
    "meta_description": "Une aventure à l'humour insolent, sur l'activisme, faite avec Solarus.",
    "meta_image": "images/thumbnail.png",
    "meta_title": "Vegan on a Desert Island",
    "slug": "games/vegan-on-a-desert-island",
    "title": "Vegan on a Desert Island"
  },
  "page_slug": "games/vegan-on-a-desert-island",
  "players": 1,
  "publish": true,
  "release_date": "",
  "solarus_version": "1.6.x",
  "source_code": "https://gitlab.com/voadi/voadi",
  "states": [
    "En développement"
  ],
  "title": "Vegan on a Desert Island",
  "types": [
    "Aventure",
    "Puzzle"
  ],
  "version": "0.2.1"
}