{
  "authors": [
    "Christopho"
  ],
  "categories": [
    "Solarus"
  ],
  "creation_date": "2014-08-03",
  "excerpt": "More and more people are interested in creating games with Solarus. However, there was a lack of tutorials to explain how to do it.\r\n\r\nThere is a....",
  "id": "2014-08-03-english-tutorial",
  "image_thumbnail": "../../../../../assets/blog/default_article_thumbnail.jpg",
  "page_override": {
    "meta_description": "",
    "meta_image": "../../../../../assets/images/meta_image_fallback.jpg",
    "meta_title": "English tutorial!",
    "parent": "news",
    "slug": "news/2014-08-03-english-tutorial",
    "title": "English tutorial!"
  },
  "page_slug": "news/2014-08-03-english-tutorial",
  "publish": true,
  "title": "English tutorial!"
}