{
  "authors": [
    "Christopho"
  ],
  "categories": [
    "Solarus"
  ],
  "creation_date": "2014-08-21",
  "excerpt": "UPDATE: a bugfix version 1.3.1 was just released. It fixes an error when opening a newly created sprite, and improves the sorting of resources with....",
  "id": "2014-08-21-solarus-1-3-is-out-now-with-a-sprite-editor",
  "image_thumbnail": "../../../../../assets/blog/default_article_thumbnail.jpg",
  "page_override": {
    "meta_description": "",
    "meta_image": "../../../../../assets/images/meta_image_fallback.jpg",
    "meta_title": "Solarus 1.3 is out, now with a sprite editor!",
    "parent": "news",
    "slug": "news/2014-08-21-solarus-1-3-is-out-now-with-a-sprite-editor",
    "title": "Solarus 1.3 is out, now with a sprite editor!"
  },
  "page_slug": "news/2014-08-21-solarus-1-3-is-out-now-with-a-sprite-editor",
  "publish": true,
  "title": "Solarus 1.3 is out, now with a sprite editor!"
}