{
  "authors": [
    "Christopho"
  ],
  "categories": [
    "Solarus"
  ],
  "creation_date": "2002-03-22",
  "excerpt": "Salut à tous !!!\n\nAprès des semaines d'attente, le grand moment est enfin arrivé ! Netgamer a terminé la conception du neuvième et dernier....",
  "id": "2002-03-22-la-premiere-pierre-du-niveau-9",
  "image_thumbnail": "../../../../../assets/blog/default_article_thumbnail.jpg",
  "page_override": {
    "meta_description": "",
    "meta_image": "../../../../../assets/images/meta_image_fallback.jpg",
    "meta_title": "La première pierre du niveau 9 !",
    "parent": "news",
    "slug": "news/2002-03-22-la-premiere-pierre-du-niveau-9",
    "title": "La première pierre du niveau 9 !"
  },
  "page_slug": "news/2002-03-22-la-premiere-pierre-du-niveau-9",
  "publish": true,
  "title": "La première pierre du niveau 9 !"
}